<?xml version="1.0" encoding="utf-8"?>
<!-- Generated by IcoMoon.io -->
<!DOCTYPE svg PUBLIC "-//W3C//DTD SVG 1.1//EN" "http://www.w3.org/Graphics/SVG/1.1/DTD/svg11.dtd">
<svg version="1.1" xmlns="http://www.w3.org/2000/svg" xmlns:xlink="http://www.w3.org/1999/xlink" width="28" height="32" viewBox="0 0 28 32">
<rect fill="#ffffff" x="0" y="0" width="28" height="32"></rect>
<path d="M22 2l-4 4 6 6 4-4-6-6zM0 24l0.021 6.018 5.979-0.018 16-16-6-6-16 16zM6 28h-4v-4h2v2h2v2z" fill="#273f2f"></path>
</svg>
